

Disk        : \\.\PHYSICALDRIVE1
DiskSize    : 34356994560
DiskModel   : Microsoft Virtual Disk
Partition   : Disk #1, Partition #0
RawSize     : 34357641216
DriveLetter : D:
VolumeName  : Temporary Storage
Size        : 34357637120
FreeSpace   : 30648483840

Disk        : \\.\PHYSICALDRIVE0
DiskSize    : 136366917120
DiskModel   : Microsoft Virtual Disk
Partition   : Disk #0, Partition #2
RawSize     : 135771665920
DriveLetter : C:
VolumeName  : Windows
Size        : 135771664384
FreeSpace   : 104574320640



